module gitlab.com/srcgo/godbx

go 1.19

require github.com/shirou/gopsutil/v3 v3.22.10

require (
	github.com/go-ole/go-ole v1.2.6 // indirect
	github.com/lufia/plan9stats v0.0.0-20211012122336-39d0f177ccd0 // indirect
	github.com/power-devops/perfstat v0.0.0-20210106213030-5aafc221ea8c // indirect
	github.com/tklauser/go-sysconf v0.3.10 // indirect
	github.com/tklauser/numcpus v0.4.0 // indirect
	github.com/yusufpapurcu/wmi v1.2.2 // indirect
	golang.org/x/sys v0.0.0-20220520151302-bc2c85ada10a // indirect
)
